module gitlab.com/alafiateam/sdk

replace gitlab.com/alafiateam/sdk => /Users/nyemo/Documents/team-alafia/sdk

go 1.17

require (
	github.com/aws/aws-sdk-go v1.43.7
	github.com/dgrijalva/jwt-go v3.2.0+incompatible
	github.com/elastic/go-elasticsearch/v8 v8.0.0-alpha
	github.com/google/uuid v1.3.0
	github.com/jmoiron/sqlx v1.3.4
	github.com/lib/pq v1.10.4
	github.com/sethvargo/go-password v0.2.0
	gitlab.com/meeting-master/sdk v1.1.5
	golang.org/x/crypto v0.0.0-20220128200615-198e4374d7ed
	gopkg.in/gomail.v2 v2.0.0-20160411212932-81ebce5c23df
	gorm.io/gorm v1.23.2
)

require (
	github.com/elastic/elastic-transport-go/v8 v8.0.0-alpha // indirect
	github.com/go-sql-driver/mysql v1.6.0 // indirect
	github.com/jackc/chunkreader/v2 v2.0.1 // indirect
	github.com/jackc/pgconn v1.10.1 // indirect
	github.com/jackc/pgio v1.0.0 // indirect
	github.com/jackc/pgpassfile v1.0.0 // indirect
	github.com/jackc/pgproto3/v2 v2.2.0 // indirect
	github.com/jackc/pgservicefile v0.0.0-20200714003250-2b9c44734f2b // indirect
	github.com/jackc/pgtype v1.9.1 // indirect
	github.com/jackc/pgx/v4 v4.14.1 // indirect
	github.com/jinzhu/inflection v1.0.0 // indirect
	github.com/jinzhu/now v1.1.4 // indirect
	github.com/jmespath/go-jmespath v0.4.0 // indirect
	golang.org/x/text v0.3.7 // indirect
	gopkg.in/alexcesaro/quotedprintable.v3 v3.0.0-20150716171945-2caba252f4dc // indirect
	gorm.io/driver/mysql v1.3.2 // indirect
	gorm.io/driver/postgres v1.3.1 // indirect
)
